2019-06-20 12:18:17,582 ***********************REQUEST***********************
2019-06-20 12:18:17,583 User:andrey.gavrilov
2019-06-20 12:18:17,583 Action:tcx_request
2019-06-20 12:18:17,583 Sap:2635
2019-06-20 12:18:17,583 Pos:2
2019-06-20 12:18:17,583 Date:2019-06-19
2019-06-20 12:18:17,583 *****************************************************
2019-06-20 12:18:34,043 ***********************REQUEST***********************
2019-06-20 12:18:34,043 User:andrey.gavrilov
2019-06-20 12:18:34,043 Action:tcx_request
2019-06-20 12:18:34,043 Sap:2635
2019-06-20 12:18:34,043 Pos:2
2019-06-20 12:18:34,043 Date:2019-06-19
2019-06-20 12:18:34,044 *****************************************************
2019-06-20 12:19:24,270 ***********************REQUEST***********************
2019-06-20 12:19:24,272 User:andrey.gavrilov
2019-06-20 12:19:24,276 Action:loycard_request
2019-06-20 12:19:24,276 Sap:3231
2019-06-20 12:19:24,277 Pos:2
2019-06-20 12:19:24,277 Date:2019-06-20
2019-06-20 12:19:24,277 *****************************************************
2019-06-20 12:20:24,404 ***********************REQUEST***********************
2019-06-20 12:20:24,414 User:andrey.gavrilov
2019-06-20 12:20:24,415 Action:tcx_request
2019-06-20 12:20:24,415 Sap:2635
2019-06-20 12:20:24,415 Pos:2
2019-06-20 12:20:24,416 Date:2019-06-20
2019-06-20 12:20:24,416 *****************************************************
2019-06-20 12:20:45,432 ***********************REQUEST***********************
2019-06-20 12:20:45,434 User:andrey.gavrilov
2019-06-20 12:20:45,438 Action:tcx_request
2019-06-20 12:20:45,438 Sap:2635
2019-06-20 12:20:45,438 Pos:2
2019-06-20 12:20:45,438 Date:2019-06-19
2019-06-20 12:20:45,439 *****************************************************
2019-06-20 12:22:47,383 ***********************REQUEST***********************
2019-06-20 12:22:47,384 User:andrey.gavrilov
2019-06-20 12:22:47,387 Action:tcx_request
2019-06-20 12:22:47,387 Sap:2635
2019-06-20 12:22:47,387 Pos:2
2019-06-20 12:22:47,388 Date:2019-06-19
2019-06-20 12:22:47,388 *****************************************************
2019-06-20 12:24:56,457 ***********************REQUEST***********************
2019-06-20 12:24:56,458 User:andrey.gavrilov
2019-06-20 12:24:56,460 Action:tcx_request
2019-06-20 12:24:56,460 Sap:2635
2019-06-20 12:24:56,460 Pos:2
2019-06-20 12:24:56,461 Date:2019-06-19
2019-06-20 12:24:56,461 *****************************************************
2019-06-20 12:32:42,029 ***********************REQUEST***********************
2019-06-20 12:32:42,029 User:andrey.gavrilov
2019-06-20 12:32:42,031 Action:tcx_request
2019-06-20 12:32:42,032 Sap:2635
2019-06-20 12:32:42,032 Pos:1
2019-06-20 12:32:42,032 Date:2019-06-20
2019-06-20 12:32:42,032 *****************************************************
2019-06-20 12:34:25,183 ***********************REQUEST***********************
2019-06-20 12:34:25,183 User:andrey.gavrilov
2019-06-20 12:34:25,186 Action:tcx_request
2019-06-20 12:34:25,186 Sap:2635
2019-06-20 12:34:25,186 Pos:2
2019-06-20 12:34:25,187 Date:2019-06-20
2019-06-20 12:34:25,187 *****************************************************
2019-06-20 12:34:36,393 ***********************REQUEST***********************
2019-06-20 12:34:36,393 User:andrey.gavrilov
2019-06-20 12:34:36,396 Action:tcx_request
2019-06-20 12:34:36,397 Sap:2635
2019-06-20 12:34:36,397 Pos:3
2019-06-20 12:34:36,397 Date:2019-06-20
2019-06-20 12:34:36,397 *****************************************************
2019-06-20 12:36:13,825 ***********************REQUEST***********************
2019-06-20 12:36:13,826 User:andrey.gavrilov
2019-06-20 12:36:13,829 Action:tcx_request
2019-06-20 12:36:13,829 Sap:2635
2019-06-20 12:36:13,830 Pos:2
2019-06-20 12:36:13,830 Date:2019-06-19
2019-06-20 12:36:13,830 *****************************************************
2019-06-20 12:40:48,300 ***********************REQUEST***********************
2019-06-20 12:40:48,301 User:andrey.gavrilov
2019-06-20 12:40:48,304 Action:tcx_request
2019-06-20 12:40:48,304 Sap:2635
2019-06-20 12:40:48,304 Pos:2
2019-06-20 12:40:48,304 Date:2019-06-20
2019-06-20 12:40:48,305 *****************************************************
2019-06-20 13:49:02,783 ***********************REQUEST***********************
2019-06-20 13:49:02,827 User:andrey.gavrilov
2019-06-20 13:49:02,827 Action:stoloto_request
2019-06-20 13:49:02,827 Sap:G809
2019-06-20 13:49:02,827 Pos:1
2019-06-20 13:49:02,827 Date:2019-06-20
2019-06-20 13:49:02,827 *****************************************************
2019-06-20 13:50:17,296 ***********************REQUEST***********************
2019-06-20 13:50:17,297 User:andrey.gavrilov
2019-06-20 13:50:17,297 Action:stoloto_request
2019-06-20 13:50:17,297 Sap:G809
2019-06-20 13:50:17,297 Pos:1
2019-06-20 13:50:17,297 Date:2019-06-20
2019-06-20 13:50:17,297 *****************************************************
2019-06-20 13:51:41,080 ***********************REQUEST***********************
2019-06-20 13:51:41,080 User:andrey.gavrilov
2019-06-20 13:51:41,080 Action:stoloto_request
2019-06-20 13:51:41,080 Sap:G809
2019-06-20 13:51:41,080 Pos:1
2019-06-20 13:51:41,080 Date:2019-06-20
2019-06-20 13:51:41,080 *****************************************************
2019-06-20 13:52:15,555 ***********************REQUEST***********************
2019-06-20 13:52:15,555 User:andrey.gavrilov
2019-06-20 13:52:15,555 Action:stoloto_request
2019-06-20 13:52:15,555 Sap:G809
2019-06-20 13:52:15,555 Pos:1
2019-06-20 13:52:15,555 Date:2019-06-20
2019-06-20 13:52:15,555 *****************************************************
2019-06-20 14:13:29,381 ***********************REQUEST***********************
2019-06-20 14:13:29,382 User:andrey.gavrilov
2019-06-20 14:13:29,382 Action:stoloto_request
2019-06-20 14:13:29,382 Sap:G809
2019-06-20 14:13:29,382 Pos:1
2019-06-20 14:13:29,382 Date:2019-06-20
2019-06-20 14:13:29,382 *****************************************************
2019-06-20 14:15:45,123 ***********************REQUEST***********************
2019-06-20 14:15:45,123 User:andrey.gavrilov
2019-06-20 14:15:45,124 Action:stoloto_request
2019-06-20 14:15:45,124 Sap:G809
2019-06-20 14:15:45,124 Pos:1
2019-06-20 14:15:45,124 Date:2019-06-20
2019-06-20 14:15:45,124 *****************************************************
2019-06-20 14:18:37,341 ***********************REQUEST***********************
2019-06-20 14:18:37,342 User:andrey.gavrilov
2019-06-20 14:18:37,342 Action:stoloto_request
2019-06-20 14:18:37,342 Sap:G809
2019-06-20 14:18:37,342 Pos:1
2019-06-20 14:18:37,343 Date:2019-06-20
2019-06-20 14:18:37,343 *****************************************************
2019-06-20 14:34:57,872 ***********************REQUEST***********************
2019-06-20 14:34:57,872 User:andrey.gavrilov
2019-06-20 14:34:57,872 Action:stoloto_request
2019-06-20 14:34:57,873 Sap:3231
2019-06-20 14:34:57,873 Pos:2
2019-06-20 14:34:57,873 Date:2019-06-20
2019-06-20 14:34:57,873 *****************************************************
2019-06-20 14:35:24,177 ***********************REQUEST***********************
2019-06-20 14:35:24,178 User:andrey.gavrilov
2019-06-20 14:35:24,178 Action:stoloto_request
2019-06-20 14:35:24,178 Sap:G809
2019-06-20 14:35:24,178 Pos:1
2019-06-20 14:35:24,178 Date:2019-06-20
2019-06-20 14:35:24,178 *****************************************************
2019-06-20 14:38:23,230 ***********************REQUEST***********************
2019-06-20 14:38:23,230 User:andrey.gavrilov
2019-06-20 14:38:23,230 Action:stoloto_request
2019-06-20 14:38:23,230 Sap:G809
2019-06-20 14:38:23,230 Pos:1
2019-06-20 14:38:23,230 Date:2019-06-20
2019-06-20 14:38:23,230 *****************************************************
2019-06-20 15:31:19,965 ***********************REQUEST***********************
2019-06-20 15:31:19,965 User:andrey.gavrilov
2019-06-20 15:31:19,965 Action:tc5_request
2019-06-20 15:31:19,965 Sap:3231
2019-06-20 15:31:19,965 Pos:2
2019-06-20 15:31:19,965 Date:2019-06-20
2019-06-20 15:31:19,965 *****************************************************
2019-06-20 15:32:00,591 ***********************REQUEST***********************
2019-06-20 15:32:00,592 User:andrey.gavrilov
2019-06-20 15:32:00,592 Action:tc5_request
2019-06-20 15:32:00,592 Sap:3231
2019-06-20 15:32:00,592 Pos:2
2019-06-20 15:32:00,592 Date:2019-06-20
2019-06-20 15:32:00,592 *****************************************************
2019-06-20 15:33:42,112 ***********************REQUEST***********************
2019-06-20 15:33:42,112 User:andrey.gavrilov
2019-06-20 15:33:42,112 Action:tc5_request
2019-06-20 15:33:42,112 Sap:3231
2019-06-20 15:33:42,112 Pos:2
2019-06-20 15:33:42,113 Date:2019-06-20
2019-06-20 15:33:42,113 *****************************************************
2019-06-20 15:34:34,135 ***********************REQUEST***********************
2019-06-20 15:34:34,135 User:andrey.gavrilov
2019-06-20 15:34:34,135 Action:tc5_request
2019-06-20 15:34:34,135 Sap:3231
2019-06-20 15:34:34,135 Pos:2
2019-06-20 15:34:34,135 Date:2019-06-20
2019-06-20 15:34:34,135 *****************************************************
2019-06-20 15:35:22,986 ***********************REQUEST***********************
2019-06-20 15:35:22,986 User:andrey.gavrilov
2019-06-20 15:35:22,986 Action:tc5_request
2019-06-20 15:35:22,986 Sap:barcode
2019-06-20 15:35:22,986 Pos:3231
2019-06-20 15:35:22,986 Date:2
2019-06-20 15:35:22,987 *****************************************************
2019-06-20 15:36:15,133 ***********************REQUEST***********************
2019-06-20 15:36:15,133 User:andrey.gavrilov
2019-06-20 15:36:15,134 Action:tc5_request
2019-06-20 15:36:15,134 Sap:barcode
2019-06-20 15:36:15,134 Pos:3231
2019-06-20 15:36:15,134 Date:2
2019-06-20 15:36:15,134 *****************************************************
2019-06-20 15:36:23,218 ***********************REQUEST***********************
2019-06-20 15:36:23,218 User:andrey.gavrilov
2019-06-20 15:36:23,218 Action:tc5_request
2019-06-20 15:36:23,218 Sap:3231
2019-06-20 15:36:23,218 Pos:2
2019-06-20 15:36:23,219 Date:2019-06-20
2019-06-20 15:36:23,219 *****************************************************
2019-06-20 15:36:37,371 ***********************REQUEST***********************
2019-06-20 15:36:37,371 User:andrey.gavrilov
2019-06-20 15:36:37,372 Action:tc5_request
2019-06-20 15:36:37,372 Sap:3231
2019-06-20 15:36:37,372 Pos:2
2019-06-20 15:36:37,372 Date:2019-06-20
2019-06-20 15:36:37,372 *****************************************************
2019-06-20 15:37:09,990 ***********************REQUEST***********************
2019-06-20 15:37:09,991 User:andrey.gavrilov
2019-06-20 15:37:09,991 Action:tc5_request
2019-06-20 15:37:09,991 Sap:3231
2019-06-20 15:37:09,991 Pos:2
2019-06-20 15:37:09,991 Date:2019-06-20
2019-06-20 15:37:09,991 *****************************************************
2019-06-20 15:38:29,463 ***********************REQUEST***********************
2019-06-20 15:38:29,464 User:andrey.gavrilov
2019-06-20 15:38:29,464 Action:tc5_request
2019-06-20 15:38:29,464 Sap:3231
2019-06-20 15:38:29,464 Pos:2
2019-06-20 15:38:29,464 Date:2019-06-20
2019-06-20 15:38:29,464 *****************************************************
2019-06-20 15:38:35,860 ***********************REQUEST***********************
2019-06-20 15:38:35,861 User:andrey.gavrilov
2019-06-20 15:38:35,861 Action:tc5_request
2019-06-20 15:38:35,861 Sap:3231
2019-06-20 15:38:35,861 Pos:2
2019-06-20 15:38:35,861 Date:2019-06-20
2019-06-20 15:38:35,861 *****************************************************
2019-06-20 15:39:17,009 ***********************REQUEST***********************
2019-06-20 15:39:17,010 User:andrey.gavrilov
2019-06-20 15:39:17,010 Action:tc5_request
2019-06-20 15:39:17,010 Sap:3231
2019-06-20 15:39:17,010 Pos:2
2019-06-20 15:39:17,010 Date:2019-06-20
2019-06-20 15:39:17,010 *****************************************************
2019-06-20 15:39:35,692 ***********************REQUEST***********************
2019-06-20 15:39:35,692 User:andrey.gavrilov
2019-06-20 15:39:35,692 Action:tc5_request
2019-06-20 15:39:35,692 Sap:3231
2019-06-20 15:39:35,692 Pos:3
2019-06-20 15:39:35,692 Date:2019-06-20
2019-06-20 15:39:35,692 *****************************************************
2019-06-20 15:40:56,276 ***********************REQUEST***********************
2019-06-20 15:40:56,276 User:andrey.gavrilov
2019-06-20 15:40:56,276 Action:tc5_request
2019-06-20 15:40:56,277 Sap:3231
2019-06-20 15:40:56,277 Pos:3
2019-06-20 15:40:56,277 Date:2019-06-20
2019-06-20 15:40:56,277 *****************************************************
2019-06-20 15:40:58,670 ***********************REQUEST***********************
2019-06-20 15:40:58,670 User:andrey.gavrilov
2019-06-20 15:40:58,671 Action:tc5_request
2019-06-20 15:40:58,671 Sap:3231
2019-06-20 15:40:58,671 Pos:3
2019-06-20 15:40:58,671 Date:2019-06-20
2019-06-20 15:40:58,671 *****************************************************
2019-06-20 15:41:05,773 ***********************REQUEST***********************
2019-06-20 15:41:05,801 User:andrey.gavrilov
2019-06-20 15:41:05,801 Action:tc5_request
2019-06-20 15:41:05,801 Sap:3231
2019-06-20 15:41:05,801 Pos:3
2019-06-20 15:41:05,802 Date:2019-06-20
2019-06-20 15:41:05,802 *****************************************************
2019-06-20 15:41:48,569 ***********************REQUEST***********************
2019-06-20 15:41:48,570 User:andrey.gavrilov
2019-06-20 15:41:48,570 Action:tc5_request
2019-06-20 15:41:48,571 Sap:3231
2019-06-20 15:41:48,571 Pos:3
2019-06-20 15:41:48,571 Date:2019-06-20
2019-06-20 15:41:48,571 *****************************************************
2019-06-20 15:43:09,989 ***********************REQUEST***********************
2019-06-20 15:43:09,990 User:andrey.gavrilov
2019-06-20 15:43:09,990 Action:tc5_request
2019-06-20 15:43:09,990 Sap:3231
2019-06-20 15:43:09,991 Pos:3
2019-06-20 15:43:09,991 Date:2019-06-20
2019-06-20 15:43:09,991 *****************************************************
2019-06-20 15:43:52,329 ***********************REQUEST***********************
2019-06-20 15:43:52,330 User:andrey.gavrilov
2019-06-20 15:43:52,330 Action:tc5_request
2019-06-20 15:43:52,330 Sap:3231
2019-06-20 15:43:52,330 Pos:3
2019-06-20 15:43:52,331 Date:2019-06-20
2019-06-20 15:43:52,331 *****************************************************
2019-06-20 15:44:48,182 ***********************REQUEST***********************
2019-06-20 15:44:48,183 User:andrey.gavrilov
2019-06-20 15:44:48,183 Action:tc5_request
2019-06-20 15:44:48,184 Sap:3231
2019-06-20 15:44:48,184 Pos:3
2019-06-20 15:44:48,184 Date:2019-06-20
2019-06-20 15:44:48,184 *****************************************************
2019-06-20 15:45:13,857 ***********************REQUEST***********************
2019-06-20 15:45:13,858 User:andrey.gavrilov
2019-06-20 15:45:13,858 Action:tc5_request
2019-06-20 15:45:13,858 Sap:3231
2019-06-20 15:45:13,859 Pos:3
2019-06-20 15:45:13,859 Date:2019-06-20
2019-06-20 15:45:13,859 *****************************************************
2019-06-20 15:45:41,481 ***********************REQUEST***********************
2019-06-20 15:45:41,482 User:andrey.gavrilov
2019-06-20 15:45:41,482 Action:tc5_request
2019-06-20 15:45:41,483 Sap:3231
2019-06-20 15:45:41,483 Pos:1
2019-06-20 15:45:41,483 Date:2019-06-20
2019-06-20 15:45:41,483 *****************************************************
2019-06-20 15:46:59,175 ***********************REQUEST***********************
2019-06-20 15:46:59,176 User:andrey.gavrilov
2019-06-20 15:46:59,177 Action:tc5_request
2019-06-20 15:46:59,177 Sap:3231
2019-06-20 15:46:59,177 Pos:1
2019-06-20 15:46:59,177 Date:2019-06-20
2019-06-20 15:46:59,178 *****************************************************
2019-06-20 15:48:08,502 ***********************REQUEST***********************
2019-06-20 15:48:08,503 User:andrey.gavrilov
2019-06-20 15:48:08,503 Action:tc5_request
2019-06-20 15:48:08,504 Sap:3231
2019-06-20 15:48:08,504 Pos:1
2019-06-20 15:48:08,504 Date:2019-06-20
2019-06-20 15:48:08,504 *****************************************************
2019-06-20 15:48:59,024 ***********************REQUEST***********************
2019-06-20 15:48:59,025 User:andrey.gavrilov
2019-06-20 15:48:59,026 Action:tc5_request
2019-06-20 15:48:59,026 Sap:3231
2019-06-20 15:48:59,026 Pos:1
2019-06-20 15:48:59,026 Date:2019-06-20
2019-06-20 15:48:59,026 *****************************************************
2019-06-20 16:05:07,045 ***********************REQUEST***********************
2019-06-20 16:05:07,045 User:andrey.gavrilov
2019-06-20 16:05:07,045 Action:tc5_request
2019-06-20 16:05:07,045 Sap:3231
2019-06-20 16:05:07,045 Pos:1
2019-06-20 16:05:07,045 Date:2019-06-20
2019-06-20 16:05:07,045 *****************************************************
2019-06-20 16:05:55,452 ***********************REQUEST***********************
2019-06-20 16:05:55,452 User:andrey.gavrilov
2019-06-20 16:05:55,452 Action:tc5_request
2019-06-20 16:05:55,452 Sap:3231
2019-06-20 16:05:55,452 Pos:1
2019-06-20 16:05:55,453 Date:2019-06-20
2019-06-20 16:05:55,453 *****************************************************
2019-06-20 16:07:29,606 ***********************REQUEST***********************
2019-06-20 16:07:29,607 User:andrey.gavrilov
2019-06-20 16:07:29,607 Action:tc5_request
2019-06-20 16:07:29,607 Sap:3231
2019-06-20 16:07:29,607 Pos:1
2019-06-20 16:07:29,608 Date:2019-06-20
2019-06-20 16:07:29,608 *****************************************************
2019-06-20 16:08:46,888 ***********************REQUEST***********************
2019-06-20 16:08:46,888 User:andrey.gavrilov
2019-06-20 16:08:46,888 Action:tc5_request
2019-06-20 16:08:46,888 Sap:3231
2019-06-20 16:08:46,888 Pos:1
2019-06-20 16:08:46,888 Date:2019-06-20
2019-06-20 16:08:46,889 *****************************************************
2019-06-20 16:09:43,431 ***********************REQUEST***********************
2019-06-20 16:09:43,431 User:andrey.gavrilov
2019-06-20 16:09:43,431 Action:tc5_request
2019-06-20 16:09:43,431 Sap:3231
2019-06-20 16:09:43,431 Pos:1
2019-06-20 16:09:43,431 Date:2019-06-20
2019-06-20 16:09:43,431 *****************************************************
2019-06-20 16:11:17,637 ***********************REQUEST***********************
2019-06-20 16:11:17,638 User:andrey.gavrilov
2019-06-20 16:11:17,638 Action:tc5_request
2019-06-20 16:11:17,638 Sap:3231
2019-06-20 16:11:17,638 Pos:1
2019-06-20 16:11:17,638 Date:2019-06-20
2019-06-20 16:11:17,638 *****************************************************
2019-06-20 16:12:22,085 ***********************REQUEST***********************
2019-06-20 16:12:22,085 User:andrey.gavrilov
2019-06-20 16:12:22,086 Action:tc5_request
2019-06-20 16:12:22,086 Sap:3231
2019-06-20 16:12:22,086 Pos:1
2019-06-20 16:12:22,086 Date:2019-06-20
2019-06-20 16:12:22,086 *****************************************************
2019-06-20 16:13:38,944 ***********************REQUEST***********************
2019-06-20 16:13:38,944 User:andrey.gavrilov
2019-06-20 16:13:38,944 Action:tc5_request
2019-06-20 16:13:38,944 Sap:3231
2019-06-20 16:13:38,944 Pos:1
2019-06-20 16:13:38,944 Date:2019-06-20
2019-06-20 16:13:38,944 *****************************************************
2019-06-20 16:14:38,296 ***********************REQUEST***********************
2019-06-20 16:14:38,297 User:andrey.gavrilov
2019-06-20 16:14:38,297 Action:tc5_request
2019-06-20 16:14:38,297 Sap:3231
2019-06-20 16:14:38,297 Pos:1
2019-06-20 16:14:38,297 Date:2019-06-20
2019-06-20 16:14:38,297 *****************************************************
2019-06-20 16:15:56,618 ***********************REQUEST***********************
2019-06-20 16:15:56,619 User:andrey.gavrilov
2019-06-20 16:15:56,619 Action:tc5_request
2019-06-20 16:15:56,619 Sap:3231
2019-06-20 16:15:56,619 Pos:1
2019-06-20 16:15:56,620 Date:2019-06-20
2019-06-20 16:15:56,620 *****************************************************
2019-06-20 16:16:28,678 ***********************REQUEST***********************
2019-06-20 16:16:28,678 User:andrey.gavrilov
2019-06-20 16:16:28,678 Action:tc5_request
2019-06-20 16:16:28,678 Sap:3231
2019-06-20 16:16:28,679 Pos:1
2019-06-20 16:16:28,679 Date:2019-06-20
2019-06-20 16:16:28,679 *****************************************************
2019-06-20 16:16:36,344 ***********************REQUEST***********************
2019-06-20 16:16:36,344 User:andrey.gavrilov
2019-06-20 16:16:36,344 Action:tc5_request
2019-06-20 16:16:36,344 Sap:3231
2019-06-20 16:16:36,344 Pos:1
2019-06-20 16:16:36,344 Date:2019-06-20
2019-06-20 16:16:36,345 *****************************************************
2019-06-20 16:22:08,507 ***********************REQUEST***********************
2019-06-20 16:22:08,507 User:andrey.gavrilov
2019-06-20 16:22:08,507 Action:tc5_request
2019-06-20 16:22:08,507 Sap:3231
2019-06-20 16:22:08,507 Pos:1
2019-06-20 16:22:08,508 Date:2019-06-20
2019-06-20 16:22:08,508 *****************************************************
2019-06-20 16:22:43,329 ***********************REQUEST***********************
2019-06-20 16:22:43,330 User:andrey.gavrilov
2019-06-20 16:22:43,330 Action:tc5_request
2019-06-20 16:22:43,330 Sap:3231
2019-06-20 16:22:43,330 Pos:1
2019-06-20 16:22:43,330 Date:2019-06-20
2019-06-20 16:22:43,330 *****************************************************
2019-06-20 16:23:55,805 ***********************REQUEST***********************
2019-06-20 16:23:55,807 User:andrey.gavrilov
2019-06-20 16:23:55,807 Action:tc5_request
2019-06-20 16:23:55,807 Sap:3231
2019-06-20 16:23:55,807 Pos:1
2019-06-20 16:23:55,807 Date:2019-06-20
2019-06-20 16:23:55,808 *****************************************************
2019-06-20 16:25:32,236 ***********************REQUEST***********************
2019-06-20 16:25:32,236 User:andrey.gavrilov
2019-06-20 16:25:32,236 Action:tc5_request
2019-06-20 16:25:32,237 Sap:3231
2019-06-20 16:25:32,237 Pos:1
2019-06-20 16:25:32,237 Date:2019-06-20
2019-06-20 16:25:32,237 *****************************************************
2019-06-20 16:26:50,780 ***********************REQUEST***********************
2019-06-20 16:26:50,781 User:andrey.gavrilov
2019-06-20 16:26:50,782 Action:tc5_request
2019-06-20 16:26:50,782 Sap:3231
2019-06-20 16:26:50,782 Pos:1
2019-06-20 16:26:50,782 Date:2019-06-20
2019-06-20 16:26:50,782 *****************************************************
2019-06-20 16:29:13,952 ***********************REQUEST***********************
2019-06-20 16:29:13,953 User:andrey.gavrilov
2019-06-20 16:29:13,953 Action:tc5_request
2019-06-20 16:29:13,953 Sap:3231
2019-06-20 16:29:13,953 Pos:1
2019-06-20 16:29:13,953 Date:2019-06-20
2019-06-20 16:29:13,954 *****************************************************
2019-06-20 16:30:33,567 ***********************REQUEST***********************
2019-06-20 16:30:33,568 User:andrey.gavrilov
2019-06-20 16:30:33,568 Action:tc5_request
2019-06-20 16:30:33,568 Sap:3231
2019-06-20 16:30:33,568 Pos:1
2019-06-20 16:30:33,568 Date:2019-06-20
2019-06-20 16:30:33,568 *****************************************************
2019-06-20 16:49:58,074 ***********************REQUEST***********************
2019-06-20 16:49:58,074 User:andrey.gavrilov
2019-06-20 16:49:58,075 Action:tc5_request
2019-06-20 16:49:58,075 Sap:3231
2019-06-20 16:49:58,075 Pos:1
2019-06-20 16:49:58,075 Date:2019-06-20
2019-06-20 16:49:58,075 *****************************************************
2019-06-20 17:37:03,121 ***********************REQUEST***********************
2019-06-20 17:37:03,122 User:andrey.gavrilov
2019-06-20 17:37:03,122 Action:loycard_request
2019-06-20 17:37:03,122 Sap:3231
2019-06-20 17:37:03,122 Pos:2
2019-06-20 17:37:03,122 Date:2019-06-20
2019-06-20 17:37:03,122 *****************************************************
2019-06-20 17:48:26,328 ***********************REQUEST***********************
2019-06-20 17:48:26,329 User:andrey.gavrilov
2019-06-20 17:48:26,329 Action:tc5_request
2019-06-20 17:48:26,329 Sap:3231
2019-06-20 17:48:26,329 Pos:1
2019-06-20 17:48:26,329 Date:2019-06-20
2019-06-20 17:48:26,329 *****************************************************
2019-06-20 17:48:55,783 ***********************REQUEST***********************
2019-06-20 17:48:55,783 User:andrey.gavrilov
2019-06-20 17:48:55,783 Action:loycard_request
2019-06-20 17:48:55,783 Sap:3231
2019-06-20 17:48:55,783 Pos:2
2019-06-20 17:48:55,783 Date:2019-06-20
2019-06-20 17:48:55,784 *****************************************************
2019-06-20 17:49:05,836 ***********************REQUEST***********************
2019-06-20 17:49:05,836 User:andrey.gavrilov
2019-06-20 17:49:05,837 Action:tc5_request
2019-06-20 17:49:05,837 Sap:3231
2019-06-20 17:49:05,837 Pos:2
2019-06-20 17:49:05,837 Date:2019-06-20
2019-06-20 17:49:05,837 *****************************************************
2019-06-20 17:52:04,496 ***********************REQUEST***********************
2019-06-20 17:52:04,497 User:andrey.gavrilov
2019-06-20 17:52:04,497 Action:tc5_request
2019-06-20 17:52:04,497 Sap:3231
2019-06-20 17:52:04,497 Pos:2
2019-06-20 17:52:04,497 Date:2019-06-20
2019-06-20 17:52:04,497 *****************************************************
2019-06-20 17:52:27,841 ***********************REQUEST***********************
2019-06-20 17:52:27,841 User:andrey.gavrilov
2019-06-20 17:52:27,841 Action:tc5_request
2019-06-20 17:52:27,841 Sap:3231
2019-06-20 17:52:27,841 Pos:2
2019-06-20 17:52:27,842 Date:2019-06-20
2019-06-20 17:52:27,842 *****************************************************
2019-06-20 17:59:17,686 ***********************REQUEST***********************
2019-06-20 17:59:17,686 User:andrey.gavrilov
2019-06-20 17:59:17,686 Action:tcx_request
2019-06-20 17:59:17,686 Sap:2635
2019-06-20 17:59:17,686 Pos:1
2019-06-20 17:59:17,686 Date:2019-06-20
2019-06-20 17:59:17,686 *****************************************************
2019-06-20 17:59:51,364 ***********************REQUEST***********************
2019-06-20 17:59:51,364 User:andrey.gavrilov
2019-06-20 17:59:51,365 Action:tcx_request
2019-06-20 17:59:51,365 Sap:2635
2019-06-20 17:59:51,365 Pos:2
2019-06-20 17:59:51,365 Date:2019-06-20
2019-06-20 17:59:51,365 *****************************************************
2019-06-20 18:04:33,837 ***********************REQUEST***********************
2019-06-20 18:04:33,837 User:andrey.gavrilov
2019-06-20 18:04:33,837 Action:tcx_request
2019-06-20 18:04:33,837 Sap:2635
2019-06-20 18:04:33,837 Pos:1
2019-06-20 18:04:33,838 Date:2019-06-20
2019-06-20 18:04:33,838 *****************************************************
2019-06-20 18:04:40,967 ***********************REQUEST***********************
2019-06-20 18:04:40,968 User:andrey.gavrilov
2019-06-20 18:04:40,968 Action:tcx_request
2019-06-20 18:04:40,968 Sap:2635
2019-06-20 18:04:40,968 Pos:2
2019-06-20 18:04:40,968 Date:2019-06-20
2019-06-20 18:04:40,968 *****************************************************
2019-07-12 12:19:33,741 ***********************REQUEST***********************
2019-07-12 12:19:33,743 User:andrey.gavrilov
2019-07-12 12:19:33,743 Action:loycard_request
2019-07-12 12:19:33,743 Sap:338D
2019-07-12 12:19:33,743 Pos:1
2019-07-12 12:19:33,743 Date:2019-06-13
2019-07-12 12:19:33,744 *****************************************************
2019-07-12 12:19:40,077 ***********************REQUEST***********************
2019-07-12 12:19:40,078 User:andrey.gavrilov
2019-07-12 12:19:40,078 Action:loycard_request
2019-07-12 12:19:40,078 Sap:338D
2019-07-12 12:19:40,078 Pos:1
2019-07-12 12:19:40,078 Date:2019-06-13
2019-07-12 12:19:40,078 *****************************************************
2019-07-12 12:20:07,389 ***********************REQUEST***********************
2019-07-12 12:20:07,389 User:andrey.gavrilov
2019-07-12 12:20:07,389 Action:loycard_request
2019-07-12 12:20:07,389 Sap:338D
2019-07-12 12:20:07,390 Pos:1
2019-07-12 12:20:07,390 Date:2019-06-13
2019-07-12 12:20:07,390 *****************************************************
2019-07-12 12:21:01,074 ***********************REQUEST***********************
2019-07-12 12:21:01,075 User:andrey.gavrilov
2019-07-12 12:21:01,075 Action:loycard_request
2019-07-12 12:21:01,075 Sap:338D
2019-07-12 12:21:01,075 Pos:1
2019-07-12 12:21:01,075 Date:2019-06-13
2019-07-12 12:21:01,075 *****************************************************
2019-07-12 12:23:49,962 ***********************REQUEST***********************
2019-07-12 12:23:49,963 User:andrey.gavrilov
2019-07-12 12:23:49,964 Action:loycard_request
2019-07-12 12:23:49,964 Sap:338D
2019-07-12 12:23:49,964 Pos:1
2019-07-12 12:23:49,964 Date:2019-06-13
2019-07-12 12:23:49,964 *****************************************************
2019-07-12 12:27:20,262 ***********************REQUEST***********************
2019-07-12 12:27:20,263 User:andrey.gavrilov
2019-07-12 12:27:20,264 Action:loycard_request
2019-07-12 12:27:20,264 Sap:338D
2019-07-12 12:27:20,264 Pos:1
2019-07-12 12:27:20,264 Date:2019-06-13
2019-07-12 12:27:20,265 *****************************************************
2019-07-12 12:30:57,463 ***********************REQUEST***********************
2019-07-12 12:30:57,464 User:andrey.gavrilov
2019-07-12 12:30:57,464 Action:loycard_request
2019-07-12 12:30:57,464 Sap:338D
2019-07-12 12:30:57,464 Pos:1
2019-07-12 12:30:57,464 Date:2019-06-13
2019-07-12 12:30:57,464 *****************************************************
2019-07-12 12:34:34,519 ***********************REQUEST***********************
2019-07-12 12:34:34,519 User:andrey.gavrilov
2019-07-12 12:34:34,520 Action:loycard_request
2019-07-12 12:34:34,520 Sap:338D
2019-07-12 12:34:34,520 Pos:1
2019-07-12 12:34:34,520 Date:2019-06-13
2019-07-12 12:34:34,520 *****************************************************
2019-07-12 12:34:53,503 ***********************REQUEST***********************
2019-07-12 12:34:53,503 User:andrey.gavrilov
2019-07-12 12:34:53,504 Action:loycard_request
2019-07-12 12:34:53,504 Sap:338D
2019-07-12 12:34:53,504 Pos:1
2019-07-12 12:34:53,504 Date:2019-06-13
2019-07-12 12:34:53,504 *****************************************************
2019-07-12 12:35:56,440 ***********************REQUEST***********************
2019-07-12 12:35:56,440 User:andrey.gavrilov
2019-07-12 12:35:56,440 Action:tc5_request
2019-07-12 12:35:56,441 Sap:338D
2019-07-12 12:35:56,441 Pos:1
2019-07-12 12:35:56,441 Date:2019-06-13
2019-07-12 12:35:56,441 *****************************************************
2019-07-12 12:36:59,956 ***********************REQUEST***********************
2019-07-12 12:36:59,956 User:andrey.gavrilov
2019-07-12 12:36:59,957 Action:loycard_request
2019-07-12 12:36:59,957 Sap:338D
2019-07-12 12:36:59,957 Pos:1
2019-07-12 12:36:59,957 Date:2019-06-13
2019-07-12 12:36:59,957 *****************************************************
2019-07-12 12:38:27,355 ***********************REQUEST***********************
2019-07-12 12:38:27,356 User:andrey.gavrilov
2019-07-12 12:38:27,356 Action:loycard_request
2019-07-12 12:38:27,356 Sap:338D
2019-07-12 12:38:27,356 Pos:1
2019-07-12 12:38:27,356 Date:2019-06-13
2019-07-12 12:38:27,356 *****************************************************
2019-07-12 12:40:15,150 ***********************REQUEST***********************
2019-07-12 12:40:15,151 User:andrey.gavrilov
2019-07-12 12:40:15,151 Action:loycard_request
2019-07-12 12:40:15,151 Sap:338D
2019-07-12 12:40:15,151 Pos:1
2019-07-12 12:40:15,151 Date:2019-06-13
2019-07-12 12:40:15,151 *****************************************************
2019-07-12 12:45:44,564 ***********************REQUEST***********************
2019-07-12 12:45:44,565 User:andrey.gavrilov
2019-07-12 12:45:44,565 Action:loycard_request
2019-07-12 12:45:44,565 Sap:5733
2019-07-12 12:45:44,565 Pos:1
2019-07-12 12:45:44,565 Date:2019-01-01
2019-07-12 12:45:44,565 *****************************************************
2019-07-12 12:46:24,867 ***********************REQUEST***********************
2019-07-12 12:46:24,868 User:andrey.gavrilov
2019-07-12 12:46:24,868 Action:loycard_request
2019-07-12 12:46:24,868 Sap:5733
2019-07-12 12:46:24,868 Pos:1
2019-07-12 12:46:24,868 Date:2019-01-01
2019-07-12 12:46:24,869 *****************************************************
2019-07-12 12:46:28,816 ***********************REQUEST***********************
2019-07-12 12:46:28,816 User:andrey.gavrilov
2019-07-12 12:46:28,817 Action:loycard_request
2019-07-12 12:46:28,817 Sap:5733
2019-07-12 12:46:28,817 Pos:1
2019-07-12 12:46:28,817 Date:2019-01-02
2019-07-12 12:46:28,817 *****************************************************
2019-07-12 12:46:36,043 ***********************REQUEST***********************
2019-07-12 12:46:36,044 User:andrey.gavrilov
2019-07-12 12:46:36,044 Action:loycard_request
2019-07-12 12:46:36,044 Sap:5733
2019-07-12 12:46:36,044 Pos:1
2019-07-12 12:46:36,044 Date:2019-06-02
2019-07-12 12:46:36,044 *****************************************************
2019-07-12 12:49:19,558 ***********************REQUEST***********************
2019-07-12 12:49:19,559 User:andrey.gavrilov
2019-07-12 12:49:19,559 Action:loycard_request
2019-07-12 12:49:19,559 Sap:5733
2019-07-12 12:49:19,559 Pos:1
2019-07-12 12:49:19,559 Date:2019-06-03
2019-07-12 12:49:19,559 *****************************************************
2019-07-12 12:50:01,819 ***********************REQUEST***********************
2019-07-12 12:50:01,820 User:andrey.gavrilov
2019-07-12 12:50:01,820 Action:loycard_request
2019-07-12 12:50:01,820 Sap:5733
2019-07-12 12:50:01,820 Pos:1
2019-07-12 12:50:01,820 Date:2019-06-04
2019-07-12 12:50:01,820 *****************************************************
2019-07-12 12:50:22,609 ***********************REQUEST***********************
2019-07-12 12:50:22,609 User:andrey.gavrilov
2019-07-12 12:50:22,609 Action:loycard_request
2019-07-12 12:50:22,609 Sap:5733
2019-07-12 12:50:22,610 Pos:1
2019-07-12 12:50:22,610 Date:2019-06-05
2019-07-12 12:50:22,610 *****************************************************
2019-07-12 12:52:03,198 ***********************REQUEST***********************
2019-07-12 12:52:03,198 User:andrey.gavrilov
2019-07-12 12:52:03,199 Action:loycard_request
2019-07-12 12:52:03,199 Sap:5733
2019-07-12 12:52:03,199 Pos:1
2019-07-12 12:52:03,199 Date:2019-06-06
2019-07-12 12:52:03,199 *****************************************************
2019-07-12 12:57:16,893 ***********************REQUEST***********************
2019-07-12 12:57:16,893 User:andrey.gavrilov
2019-07-12 12:57:16,893 Action:stoloto_request
2019-07-12 12:57:16,894 Sap:Y798
2019-07-12 12:57:16,894 Pos:2
2019-07-12 12:57:16,894 Date:2019-07-01
2019-07-12 12:57:16,894 *****************************************************
2019-07-12 12:58:14,688 ***********************REQUEST***********************
2019-07-12 12:58:14,689 User:andrey.gavrilov
2019-07-12 12:58:14,689 Action:stoloto_request
2019-07-12 12:58:14,690 Sap:Y798
2019-07-12 12:58:14,690 Pos:2
2019-07-12 12:58:14,690 Date:2019-07-01
2019-07-12 12:58:14,690 *****************************************************
2019-07-12 12:59:06,872 ***********************REQUEST***********************
2019-07-12 12:59:06,873 User:andrey.gavrilov
2019-07-12 12:59:06,873 Action:stoloto_request
2019-07-12 12:59:06,873 Sap:Y798
2019-07-12 12:59:06,873 Pos:2
2019-07-12 12:59:06,874 Date:2019-07-01
2019-07-12 12:59:06,874 *****************************************************
2019-07-12 13:00:43,014 ***********************REQUEST***********************
2019-07-12 13:00:43,015 User:andrey.gavrilov
2019-07-12 13:00:43,015 Action:stoloto_request
2019-07-12 13:00:43,015 Sap:Y798
2019-07-12 13:00:43,015 Pos:2
2019-07-12 13:00:43,015 Date:2019-07-01
2019-07-12 13:00:43,015 *****************************************************
2019-07-12 13:20:20,705 ***********************REQUEST***********************
2019-07-12 13:20:20,706 User:andrey.gavrilov
2019-07-12 13:20:20,706 Action:stoloto_request
2019-07-12 13:20:20,706 Sap:Y798
2019-07-12 13:20:20,706 Pos:2
2019-07-12 13:20:20,706 Date:2019-07-01
2019-07-12 13:20:20,707 *****************************************************
2019-07-12 13:21:16,320 ***********************REQUEST***********************
2019-07-12 13:21:16,321 User:andrey.gavrilov
2019-07-12 13:21:16,322 Action:stoloto_request
2019-07-12 13:21:16,322 Sap:Y798
2019-07-12 13:21:16,322 Pos:2
2019-07-12 13:21:16,322 Date:2019-07-01
2019-07-12 13:21:16,323 *****************************************************
2019-07-12 13:23:58,785 ***********************REQUEST***********************
2019-07-12 13:23:58,786 User:andrey.gavrilov
2019-07-12 13:23:58,787 Action:stoloto_request
2019-07-12 13:23:58,787 Sap:Y798
2019-07-12 13:23:58,787 Pos:2
2019-07-12 13:23:58,787 Date:2019-07-01
2019-07-12 13:23:58,788 *****************************************************
2019-07-12 13:25:16,707 ***********************REQUEST***********************
2019-07-12 13:25:16,708 User:andrey.gavrilov
2019-07-12 13:25:16,708 Action:stoloto_request
2019-07-12 13:25:16,709 Sap:Y798
2019-07-12 13:25:16,709 Pos:2
2019-07-12 13:25:16,709 Date:2019-07-01
2019-07-12 13:25:16,709 *****************************************************
2019-07-12 13:26:36,453 ***********************REQUEST***********************
2019-07-12 13:26:36,454 User:andrey.gavrilov
2019-07-12 13:26:36,454 Action:stoloto_request
2019-07-12 13:26:36,454 Sap:Y798
2019-07-12 13:26:36,454 Pos:2
2019-07-12 13:26:36,455 Date:2019-07-01
2019-07-12 13:26:36,455 *****************************************************
2019-07-12 13:27:29,787 ***********************REQUEST***********************
2019-07-12 13:27:29,788 User:andrey.gavrilov
2019-07-12 13:27:29,789 Action:stoloto_request
2019-07-12 13:27:29,789 Sap:Y798
2019-07-12 13:27:29,789 Pos:2
2019-07-12 13:27:29,789 Date:2019-07-01
2019-07-12 13:27:29,790 *****************************************************
2019-07-12 13:28:07,197 ***********************REQUEST***********************
2019-07-12 13:28:07,198 User:andrey.gavrilov
2019-07-12 13:28:07,198 Action:stoloto_request
2019-07-12 13:28:07,198 Sap:Y798
2019-07-12 13:28:07,198 Pos:2
2019-07-12 13:28:07,199 Date:2019-07-01
2019-07-12 13:28:07,199 *****************************************************
2019-07-12 13:29:14,145 ***********************REQUEST***********************
2019-07-12 13:29:14,146 User:andrey.gavrilov
2019-07-12 13:29:14,146 Action:stoloto_request
2019-07-12 13:29:14,146 Sap:Y798
2019-07-12 13:29:14,147 Pos:2
2019-07-12 13:29:14,147 Date:2019-07-01
2019-07-12 13:29:14,147 *****************************************************
2019-07-12 13:30:12,101 ***********************REQUEST***********************
2019-07-12 13:30:12,101 User:andrey.gavrilov
2019-07-12 13:30:12,102 Action:stoloto_request
2019-07-12 13:30:12,102 Sap:Y798
2019-07-12 13:30:12,102 Pos:2
2019-07-12 13:30:12,102 Date:2019-07-01
2019-07-12 13:30:12,102 *****************************************************
2019-07-12 13:31:55,227 ***********************REQUEST***********************
2019-07-12 13:31:55,228 User:andrey.gavrilov
2019-07-12 13:31:55,228 Action:stoloto_request
2019-07-12 13:31:55,228 Sap:Y798
2019-07-12 13:31:55,228 Pos:2
2019-07-12 13:31:55,228 Date:2019-07-01
2019-07-12 13:31:55,228 *****************************************************
2019-07-12 13:32:29,790 ***********************REQUEST***********************
2019-07-12 13:32:29,790 User:andrey.gavrilov
2019-07-12 13:32:29,790 Action:stoloto_request
2019-07-12 13:32:29,790 Sap:338D
2019-07-12 13:32:29,790 Pos:1
2019-07-12 13:32:29,791 Date:2019-06-13
2019-07-12 13:32:29,791 *****************************************************
2019-07-12 13:32:34,269 ***********************REQUEST***********************
2019-07-12 13:32:34,269 User:andrey.gavrilov
2019-07-12 13:32:34,269 Action:stoloto_request
2019-07-12 13:32:34,269 Sap:338D
2019-07-12 13:32:34,270 Pos:1
2019-07-12 13:32:34,270 Date:2019-06-13
2019-07-12 13:32:34,270 *****************************************************
2019-07-12 13:33:33,276 ***********************REQUEST***********************
2019-07-12 13:33:33,277 User:andrey.gavrilov
2019-07-12 13:33:33,277 Action:loycard_request
2019-07-12 13:33:33,277 Sap:338D
2019-07-12 13:33:33,277 Pos:1
2019-07-12 13:33:33,277 Date:2019-06-13
2019-07-12 13:33:33,277 *****************************************************
